<?xml version="1.0" encoding="UTF-8" standalone="no"?>
<svg width="16px" height="16px" viewBox="0 0 16 16" version="1.1" xmlns="http://www.w3.org/2000/svg" xmlns:xlink="http://www.w3.org/1999/xlink">
    <!-- Generator: Sketch 3.8.3 (29802) - http://www.bohemiancoding.com/sketch -->
    <title>checked</title>
    <desc>Created with Sketch.</desc>
    <defs>
        <rect id="path-1" x="0" y="0" width="16" height="16" rx="2"></rect>
        <mask id="mask-2" maskContentUnits="userSpaceOnUse" maskUnits="objectBoundingBox" x="0" y="0" width="16" height="16" fill="white">
            <use xlink:href="#path-1"></use>
        </mask>
    </defs>
    <g id="Pricing-Summary" stroke="none" stroke-width="1" fill="none" fill-rule="evenodd">
        <g transform="translate(-1259.000000, -597.000000)" id="bottom-sec-copy-2">
            <g transform="translate(1235.000000, 83.000000)">
                <g id="round-up" transform="translate(24.000000, 493.000000)">
                    <g id="content">
                        <g id="checked" transform="translate(0.000000, 21.000000)">
                            <path d="M13.675686,5.08525386 C14.0806316,4.68030824 14.0806583,4.02374318 13.6758148,3.61864037 C13.2708808,3.21353355 12.6142468,3.21348009 12.2091512,3.61848923 L5.64679303,10.1802301 L6.06581286,10.1802434 L4.18186223,8.29623105 C3.77693057,7.89112658 3.12034104,7.89112658 2.71523996,8.29622761 C2.31022144,8.7011597 2.31019471,9.35771479 2.71515589,9.76276237 L5.12288354,12.1707369 C5.31731505,12.3652549 5.58109762,12.4745679 5.85617284,12.4745679 C6.13116717,12.4745679 6.39499046,12.3652703 6.58945138,12.1708094 L13.6756759,5.0852639 L13.675686,5.08525386 L13.675686,5.08525386 Z" id="Shape" fill="#2060CA"></path>
                            <use id="Rectangle-21" stroke="#333333" mask="url(#mask-2)" stroke-width="2" xlink:href="#path-1"></use>
                        </g>
                    </g>
                </g>
            </g>
        </g>
    </g>
</svg>