<?xml version="1.0" encoding="UTF-8" standalone="no"?>
<svg width="24px" height="18px" viewBox="0 0 24 18" version="1.1" xmlns="http://www.w3.org/2000/svg" xmlns:xlink="http://www.w3.org/1999/xlink">
    <!-- Generator: sketchtool 39.1 (31720) - http://www.bohemiancoding.com/sketch -->
    <title>B6D95E70-C1D9-4CB8-9D09-5DEDE95F9338</title>
    <desc>Created with sketchtool.</desc>
    <defs></defs>
    <g id="Sign-In" stroke="none" stroke-width="1" fill="none" fill-rule="evenodd">
        <g id="CO---Sign-In-" transform="translate(-473.000000, -256.000000)" fill="#333333">
            <g id="list-md-icons" transform="translate(473.000000, 256.000000)">
                <g id="checkout">
                    <g id="icon-express-checkout">
                        <path d="M5.34585,8.51148026 L1.44585,8.51148026 C1.11455,8.51148026 0.84585,8.77664474 0.84585,9.10358553 C0.84585,9.43052632 1.11455,9.69569079 1.44585,9.69569079 L5.34585,9.69569079 C5.67725,9.69569079 5.94585,9.43052632 5.94585,9.10358553 C5.94585,8.77664474 5.67725,8.51148026 5.34585,8.51148026 Z M4.94585,12.0147697 L2.84585,12.0147697 C2.51455,12.0147697 2.24585,12.2799342 2.24585,12.606875 C2.24585,12.9338158 2.51455,13.1989803 2.84585,13.1989803 L4.94585,13.1989803 C5.27715,13.1989803 5.54585,12.9338158 5.54585,12.606875 C5.54585,12.2799342 5.27715,12.0147697 4.94585,12.0147697 Z M6.04585,5.00819079 L0.64585,5.00819079 C0.31455,5.00819079 0.04585,5.27325658 0.04585,5.60029605 C0.04585,5.92733553 0.31455,6.19240132 0.64585,6.19240132 L6.04585,6.19240132 C6.37715,6.19240132 6.64585,5.92733553 6.64585,5.60029605 C6.64585,5.27325658 6.37715,5.00819079 6.04585,5.00819079 Z M21.94495,0.696677632 C21.94495,0.696677632 21.83765,0.454703947 21.47825,0.454703947 L11.69105,0.454703947 C11.36185,0.454703947 11.17785,0.674177632 11.17785,0.674177632 L8.38995,3.36835526 L6.58875,16.7528947 C6.50995,17.3068092 6.90135,17.7558224 7.46255,17.7558224 L21.71555,17.7558224 C22.27695,17.7558224 22.79595,17.3068092 22.87445,16.7528947 L23.95415,3.36450658 L21.94495,0.696677632 Z M19.85035,6.78944079 C19.53125,6.70052632 19.19995,6.88358553 19.10985,7.19819079 C19.10055,7.23055921 18.15105,10.4277303 15.23865,10.4336513 L15.23005,10.4336513 C14.06805,10.4336513 13.27565,9.95730263 12.80765,8.97786184 C12.43145,8.19036184 12.42155,7.37 12.42145,7.35776316 C12.42065,7.03151316 12.15235,6.76723684 11.82165,6.76713816 L11.82145,6.76713816 C11.49015,6.76713816 11.22155,7.03210526 11.22145,7.35904605 C11.22145,7.43957237 11.23535,9.34398026 12.49705,10.5867105 C13.19155,11.2709868 14.11095,11.6178618 15.23015,11.6178618 L15.24105,11.6178618 C18.28805,11.6116447 19.85935,8.93483553 20.26455,7.52029605 C20.35465,7.20569079 20.16925,6.87845395 19.85035,6.78944079 Z M22.30345,3.14996711 L21.18095,3.14996711 L21.34825,1.88167763 L22.30345,3.14996711 L22.30345,3.14996711 Z M12.84695,1.63427632 L20.17065,1.63427632 L19.97075,3.14996711 L12.64705,3.14996711 L12.84695,1.63427632 L12.84695,1.63427632 Z M11.59945,1.91769737 L11.43685,3.14996711 L10.32435,3.14996711 L11.59945,1.91769737 L11.59945,1.91769737 Z M21.68985,16.5735855 C21.68885,16.5746711 21.68785,16.5755592 21.68685,16.57625 L7.81825,16.57625 L9.46575,4.33417763 L22.67705,4.33417763 L21.68985,16.5735855 L21.68985,16.5735855 Z" id="express-checkout"></path>
                    </g>
                </g>
            </g>
        </g>
    </g>
</svg>