<?xml version="1.0" encoding="UTF-8" standalone="no"?>
<svg width="49px" height="43px" viewBox="0 0 49 43" version="1.1" xmlns="http://www.w3.org/2000/svg" xmlns:xlink="http://www.w3.org/1999/xlink">
    <!-- Generator: sketchtool 39.1 (31720) - http://www.bohemiancoding.com/sketch -->
    <title>C4C910F8-E590-46E4-A753-7BC962E86BAD</title>
    <desc>Created with sketchtool.</desc>
    <defs></defs>
    <g id="Confirmation" stroke="none" stroke-width="1" fill="none" fill-rule="evenodd">
        <g id="Guest---Confirmation-STH-with-PayPal" transform="translate(-643.000000, -1009.000000)">
            <g id="same-day-pickup" transform="translate(130.000000, 545.000000)">
                <g id="bopis-info-2" transform="translate(16.000000, 463.000000)">
                    <g id="what-to-bring" transform="translate(497.000000, 0.000000)">
                        <g id="id-and-cc" transform="translate(0.000000, 1.000000)">
                            <g id="creditcard" transform="translate(18.000000, 0.000000)" fill="#888888">
                                <path d="M28.4166667,0.62 L2.58333333,0.62 C1.03333333,0.62 0,1.65333333 0,3.20333333 L0,20.77 C0,22.32 1.03333333,23.3533333 2.58333333,23.3533333 L28.4166667,23.3533333 C29.9666667,23.3533333 31,22.32 31,20.77 L31,3.20333333 C31,1.65333333 29.9666667,0.62 28.4166667,0.62 L28.4166667,0.62 Z M29.45,20.77 C29.45,21.4653042 29.1119708,21.8033333 28.4166667,21.8033333 L2.58333333,21.8033333 C1.88802917,21.8033333 1.55,21.4653042 1.55,20.77 L1.55,9.20958333 L29.45,9.20958333 L29.45,20.77 L29.45,20.77 Z M29.45,5.07625 L1.55,5.07625 L1.55,3.20333333 C1.55,2.50802917 1.88802917,2.17 2.58333333,2.17 L28.4166667,2.17 C29.1119708,2.17 29.45,2.50802917 29.45,3.20333333 L29.45,5.07625 L29.45,5.07625 Z"></path>
                            </g>
                            <g id="email" transform="translate(0.000000, 19.000000)">
                                <rect id="Rectangle-259" fill="#FFFFFF" x="2.66666667" y="1.01587302" width="27.5555556" height="22.2222222"></rect>
                                <path d="M30.2802304,2.61498964 L30.2522607,20.7376605 C30.2522607,21.4512204 29.9053563,21.7981247 29.1917965,21.7981247 L2.68019078,21.7981247 C1.96663091,21.7981247 1.61972655,21.4512204 1.61972655,20.7351419 L1.59215448,2.71918025 L14.0449208,12.194163 L14.0642743,12.2088769 L14.0840254,12.2229281 C14.6642319,12.6373045 15.4443359,12.7841788 15.9359936,12.7841788 C16.4658281,12.7841788 17.3024018,12.5822929 17.8090386,12.2076839 L17.8216316,12.19867 L17.8338269,12.1892584 L30.2802304,2.61498964 L30.2802304,2.61498964 Z M29.9917842,0.0586080586 L29.9871446,0.0586080586 L1.61972655,0.0586080586 C1.3836407,0.0586080586 1.00611544,0.217677693 0.792829568,0.359249667 C0.348892731,0.597456444 0.152309175,0.889216665 0.0414906629,1.39452787 C0.0151116152,1.43562086 0,1.48373942 0,1.53437659 L0,1.76966709 L0.0290302082,20.7376605 C0.0290302082,22.3283568 1.08949444,23.3888211 2.68019078,23.3888211 L29.1917965,23.3888211 C30.7824928,23.3888211 31.842957,22.3283568 31.842957,20.7376605 L31.8721198,1.84814144 L31.8721198,1.61271838 C31.8721198,1.56459982 31.8584663,1.51860218 31.8346059,1.47883478 C31.745792,1.04762351 31.5036085,0.672484288 31.169032,0.410019392 C31.1687669,0.409886834 31.1686343,0.40948916 31.1683692,0.409224044 C30.8185486,0.0598010809 30.21647,0.0586080586 29.9917842,0.0586080586 L29.9917842,0.0586080586 Z M15.9359936,11.1934824 C15.6483427,11.1934824 15.2252175,11.0833267 15.0080874,10.9283664 L2.81274881,1.6493044 L28.9266804,1.6493044 L16.8638998,10.9283664 C16.6999255,11.0495244 16.2237771,11.1934824 15.9359936,11.1934824 L15.9359936,11.1934824 Z" fill="#888888"></path>
                            </g>
                        </g>
                    </g>
                </g>
            </g>
        </g>
    </g>
</svg>